DSAN-5000: Course notes - Cleaning-operations
…
 8 "Historicall~     228     244     236     238     197     223     131      81
 9 "Jehovah's W~      20      27      24      24      21      30      15      11
10 "Jewish"           19      19      25      25      30      95      69      87
11 "Mainline Pr~     289     495     619     655     651    1107     939     753
12 "Mormon"           29      40      48      51      56     112      85      49
13 "Muslim"            6       7       9      10       9      23      16       8
14 "Orthodox"         13      17      23      32      32      47      38      42
15 "Other Chris~       9       7      11      13      13      14      18      14
16 "Other Faith~      20      33      40      46      49      63      46      40
17 "Other World~       5       2       3       4       2       7       3       4
18 "Unaffiliate~     217     299     374     365     341     528     407     321
# ... with 2 more variables: `>150k` <dbl>, `Don't know/refused` <dbl>, and
#   abbreviated variable names 1: `$10-20k`, 2: `$20-30k`, 3: `$30-40k`,
#   4: `$40-50k`, 5: `$50-75k`, 6: `$75-100k`, 7: `$100-150k`
# A tibble: 180 x 3
   religion income_groups      counts
   <chr>    <chr>               <dbl>
 1 Agnostic <$10k                  27
 2 Agnostic $10-20k                34
 3 Agnostic $20-30k                60
 4 Agnostic $30-40k                81
 5 Agnostic $40-50k                76
 6 Agnostic $50-75k               137
 7 Agnostic $75-100k              122
 8 Agnostic $100-150k             109
 9 Agnostic >150k                  84
10 Agnostic Don't know/refused     96
# ... with 170 more rows
…
